{
  "campaigns":[
    {
      "id":1,
      "name":"Medstar Health Lung Cancer Campaign",
      "budget":1500,
      "outlets": [
        {
          "type":"phone",
          "phoneNumbers":[123456789],
          "webUrls":[],
          "id":135,
          "budget":200,
          "name":"Twilio Lung Cancer 1"
        },
        {
          "type":"web",
          "id":146,
          "phoneNumbers":[],
          "budget":1300,
          "webUrls":["www.baltimoresun.com"],
          "name":"Baltimore Sun"
        }
      ]
    },
    {
      "id":5,
      "name":"Medstar Health Prostate Campaign",
      "budget":1000,
      "outlets": [
        {
          "type":"phone",
          "phoneNumbers":[123456787],
          "id":160,
          "budget":200,
          "webUrls":[],
          "name":"Twilio Prostate Cancer 1"
        },
        {
          "type":"phone",
          "id":159,
          "budget":200,
          "phoneNumbers":[123456788],
          "webUrls":[],
          "name":"Twilio Prostate Cancer 2"
        },
        {
          "type":"web",
          "id":161,
          "budget":200,
          "phoneNumbers":[],
          "webUrls":["www.webmd.com"],
          "name":"Web MD Prostate Campaign"
        },
        {
          "type":"web",
          "id":162,
          "budget":200,
          "phoneNumbers":[],
          "webUrls":["www.youtube.com"],
          "name":"Youtube"
        },
        {
          "type":"web",
          "id":163,
          "budget":200,
          "phoneNumbers":[],
          "webUrls":["www.baltimoresun.com"],
          "name":"Baltimore Sun"
        }
      ]
    },
    {
      "id":6,
      "name":"Medstar Health Breast Cancer Campaign",
      "budget":1200,
      "outlets": [
        {
          "type":"phone",
          "id":164,
          "budget":300,
          "phoneNumbers":[123456786],
          "webUrls":[],
          "name":"Twilio Breast Cancer 1"
        },
        {
          "type":"web",
          "id":165,
          "budget":300,
          "webUrls":["www.webmd.com"],
          "name":"Web MD Breast Cancer Campaign"
        },
        {
          "type":"web",
          "id":166,
          "budget":300,
          "phoneNumbers":[],
          "webUrls":["www.google.com"],
          "name":"Google"
        },
        {
          "type":"web",
          "id":167,
          "budget":300,
          "phoneNumbers":[],
          "webUrls":["www.baltimoresun.com"],
          "name":"Baltimore Sun"
        }
      ]
    },
    {
      "id":4,
      "name":"Medstar Health Heart Disease Campaign",
      "budget":1500,
      "outlets": [
        {
          "type":"phone",
          "phoneNumbers":[123456729],
          "webUrls":[],
          "id":164,
          "budget":300,
          "name":"Twilio Heart Disease 1"
        },
        {
          "type":"web",
          "id":165,
          "phoneNumbers":[],
          "budget":300,
          "webUrls":["www.webmd.com"],
          "name":"Web MD Kidney Campaign"
        },
        {
          "type":"web",
          "id":166,
          "phoneNumbers":[],
          "budget":300,
          "webUrls":["www.google.com"],
          "name":"Google"
        },
        {
          "type":"web",
          "id":167,
          "phoneNumbers":[],
          "budget":300,
          "webUrls":["www.baltimoresun.com"],
          "name":"Baltimore Sun"
        }
      ]
    },
    {
      "id":3,
      "name":"Medstar Health Liver Campaign",
      "budget":2000,
      "outlets": [
        {
          "type":"phone",
          "id":158,
          "phoneNumbers":[557363822],
          "webUrls":[],
          "name":"Twilio Liver 1",
          "budget":400
        },
        {
          "type":"phone",
          "webUrls":[],
          "phoneNumbers":[555736822],
          "budget":400,
          "id":159,
          "name":"Twilio Kidney Cancer 2"
        },
        {
          "type":"web",
          "id":160,
          "phoneNumbers":[555736822],
          "budget":400,
          "webUrls":["www.webmd.com"],
          "name":"Web MD Liver Campaign"
        },
        {
          "type":"web",
          "phoneNumbers":[555736822],
          "budget":400,
          "id":161,
          "webUrls":["www.google.com"],
          "name":"Google"
        },
        {
          "type":"web",
          "phoneNumbers":[555736822],
          "budget":400,
          "webUrls":["www.baltimoresun.com"],
          "id":162,
          "name":"Baltimore Sun"
        }
      ]
    },
    {
      "id":2,
      "name":"Medstar Health Kidney Campaign",
      "budget":2000,
      "outlets": [
        {
          "type":"phone",
          "phoneNumbers":[555736822],
          "budget":400,
          "id":137,
          "name":"Twilio Kidney Cancer 1"
        },
        {
          "type":"phone",
          "phoneNumbers":[555736822],
          "budget":400,
          "id":138,
          "name":"Twilio Kidney Cancer 2"
        },
        {
          "type":"web",
          "id":150,
          "phoneNumbers":[],
          "budget":400,
          "webUrls":["www.webmd.com"],
          "name":"Web MD Kidney Campaign"
        },
        {
          "type":"web",
          "id":151,
          "phoneNumbers":[],
          "budget":400,
          "webUrls":["www.youtube.com"],
          "name":"Youtube"
        },
        {
          "type":"web",
          "id":152,
          "phoneNumbers":[],
          "budget":400,
          "webUrls":["www.baltimoresun.com"],
          "name":"Baltimore Sun"
        }
      ]
    }
  ]
}
