[
{
    "id": 1,
    "number": "4105551728",
    "name": "Lung Cancer Phone Portal",
    "options": [
      {
        "keypadOption":"1",
        "description":"Hospital 1 Cancer",
        "number":"4105551837"
      },
      {
        "keypadOption":"2",
        "description":"Hospital 2 Cancer",
        "number":"4105552314"
      },
      {
        "keypadOption":"3",
        "description":"Hospital Spanish",
        "number":"4105234324"
      }
    ]
},
{
  "id": 2,
  "number": "4105551231",
  "name": "Bill Pay Portal",
  "options": [
    {
      "keypadOption":"1",
      "description":"English",
      "number":"4105551828"
    },
    {
      "keypadOption":"2",
      "description":"Spanish",
      "number":"4105551222"
    }
  ]
}
]
